<svg xmlns="http://www.w3.org/2000/svg" width="40" height="40" viewBox="0 0 40 40">
  <g id="Group_2580" data-name="Group 2580" transform="translate(6605 -410)">
    <circle id="Ellipse_92" data-name="Ellipse 92" cx="20" cy="20" r="20" transform="translate(-6605 410)" fill="#147ee7"/>
    <g id="Group_2579" data-name="Group 2579" transform="translate(3 2)">
      <rect id="Rectangle_1867" data-name="Rectangle 1867" width="6" height="19" rx="1" transform="translate(-6595 419)" fill="#fff"/>
      <rect id="Rectangle_1867-2" data-name="Rectangle 1867" width="6" height="19" rx="1" transform="translate(-6586 419)" fill="#fff"/>
    </g>
  </g>
</svg>
