<svg id="Icons" xmlns="http://www.w3.org/2000/svg" width="24" height="24" viewBox="0 0 24 24">
  <g id="Two-Tone">
    <g id="Communication">
      <g id="Two-Tone-_-Communication-_-call_end" data-name="Two-Tone-/-Communication-/-call_end">
        <g id="Group_2578" data-name="Group 2578">
          <path id="Path" d="M0,0H24V24H0Z" fill="rgba(0,0,0,0)" fill-rule="evenodd"/>
          <path id="_-Secondary-Color" data-name="🔹-Secondary-Color" d="M18.59,12.23a13.753,13.753,0,0,1,1.88,1.27l1.07-1.07a15.733,15.733,0,0,0-2.96-1.91v1.71ZM3.53,13.49A13.681,13.681,0,0,1,5.4,12.22v-1.7a15.06,15.06,0,0,0-2.94,1.9Z" fill="#d0d0d0" fill-rule="evenodd"/>
          <path id="_-Primary-Color" data-name="🔹-Primary-Color" d="M12,7A16.971,16.971,0,0,0,.29,11.67a1,1,0,0,0-.29.71.956.956,0,0,0,.29.7l2.48,2.48a1,1,0,0,0,.71.29.982.982,0,0,0,.7-.28,11.511,11.511,0,0,1,2.66-1.85,1.008,1.008,0,0,0,.56-.9V9.72A14.911,14.911,0,0,1,12,9a14.516,14.516,0,0,1,4.59.73v3.1a1,1,0,0,0,.56.9,11.27,11.27,0,0,1,2.67,1.85,1.026,1.026,0,0,0,.7.28,1,1,0,0,0,.71-.29l2.48-2.48a1.014,1.014,0,0,0,0-1.42A16.971,16.971,0,0,0,12,7ZM5.4,12.22a13.681,13.681,0,0,0-1.87,1.27L2.46,12.42a15.537,15.537,0,0,1,2.94-1.9ZM20.47,13.5a13.753,13.753,0,0,0-1.88-1.27V10.52a14.8,14.8,0,0,1,2.96,1.91Z" fill="#fff" fill-rule="evenodd"/>
        </g>
      </g>
    </g>
  </g>
</svg>
